<svg xmlns="http://www.w3.org/2000/svg" xmlns:xlink="http://www.w3.org/1999/xlink" width="2000" height="1000">\n<path  d="M 0 0
L 2000 0
L 2000 1000
L 0 1000
L 0 0" style="stroke-width:0;stroke:rgba(0,0,255,0.0);fill:rgba(0,0,255,0.0)"/><path  d="M 38 11
L 1937 11
L 1937 951
L 38 951
L 38 11" style="stroke-width:0;stroke:rgba(0,0,255,0.0);fill:rgba(0,0,255,0.0)"/><path  d="M 38 951
L 1937 951" style="stroke-width:1;stroke:rgba(255,255,255,1.0);fill:none"/><path  d="M 38 951
L 38 956" style="stroke-width:1;stroke:rgba(255,255,255,1.0);fill:none"/><text x="5" y="973" style="stroke-width:0;stroke:none;fill:rgba(255,255,255,1.0);font-size:12.8px;font-family:'Roboto Medium',sans-serif">2017-07-13</text><path  d="M 138 951
L 138 956" style="stroke-width:1;stroke:rgba(255,255,255,1.0);fill:none"/><text x="105" y="973" style="stroke-width:0;stroke:none;fill:rgba(255,255,255,1.0);font-size:12.8px;font-family:'Roboto Medium',sans-serif">2017-07-13</text><path  d="M 238 951
L 238 956" style="stroke-width:1;stroke:rgba(255,255,255,1.0);fill:none"/><text x="205" y="973" style="stroke-width:0;stroke:none;fill:rgba(255,255,255,1.0);font-size:12.8px;font-family:'Roboto Medium',sans-serif">2017-07-13</text><path  d="M 338 951
L 338 956" style="stroke-width:1;stroke:rgba(255,255,255,1.0);fill:none"/><text x="305" y="973" style="stroke-width:0;stroke:none;fill:rgba(255,255,255,1.0);font-size:12.8px;font-family:'Roboto Medium',sans-serif">2017-07-13</text><path  d="M 438 951
L 438 956" style="stroke-width:1;stroke:rgba(255,255,255,1.0);fill:none"/><text x="405" y="973" style="stroke-width:0;stroke:none;fill:rgba(255,255,255,1.0);font-size:12.8px;font-family:'Roboto Medium',sans-serif">2017-07-13</text><path  d="M 538 951
L 538 956" style="stroke-width:1;stroke:rgba(255,255,255,1.0);fill:none"/><text x="505" y="973" style="stroke-width:0;stroke:none;fill:rgba(255,255,255,1.0);font-size:12.8px;font-family:'Roboto Medium',sans-serif">2017-07-13</text><path  d="M 638 951
L 638 956" style="stroke-width:1;stroke:rgba(255,255,255,1.0);fill:none"/><text x="605" y="973" style="stroke-width:0;stroke:none;fill:rgba(255,255,255,1.0);font-size:12.8px;font-family:'Roboto Medium',sans-serif">2017-07-13</text><path  d="M 738 951
L 738 956" style="stroke-width:1;stroke:rgba(255,255,255,1.0);fill:none"/><text x="705" y="973" style="stroke-width:0;stroke:none;fill:rgba(255,255,255,1.0);font-size:12.8px;font-family:'Roboto Medium',sans-serif">2017-07-13</text><path  d="M 838 951
L 838 956" style="stroke-width:1;stroke:rgba(255,255,255,1.0);fill:none"/><text x="805" y="973" style="stroke-width:0;stroke:none;fill:rgba(255,255,255,1.0);font-size:12.8px;font-family:'Roboto Medium',sans-serif">2017-07-13</text><path  d="M 938 951
L 938 956" style="stroke-width:1;stroke:rgba(255,255,255,1.0);fill:none"/><text x="905" y="973" style="stroke-width:0;stroke:none;fill:rgba(255,255,255,1.0);font-size:12.8px;font-family:'Roboto Medium',sans-serif">2017-07-13</text><path  d="M 1038 951
L 1038 956" style="stroke-width:1;stroke:rgba(255,255,255,1.0);fill:none"/><text x="1005" y="973" style="stroke-width:0;stroke:none;fill:rgba(255,255,255,1.0);font-size:12.8px;font-family:'Roboto Medium',sans-serif">2017-07-13</text><path  d="M 1138 951
L 1138 956" style="stroke-width:1;stroke:rgba(255,255,255,1.0);fill:none"/><text x="1105" y="973" style="stroke-width:0;stroke:none;fill:rgba(255,255,255,1.0);font-size:12.8px;font-family:'Roboto Medium',sans-serif">2017-07-14</text><path  d="M 1238 951
L 1238 956" style="stroke-width:1;stroke:rgba(255,255,255,1.0);fill:none"/><text x="1205" y="973" style="stroke-width:0;stroke:none;fill:rgba(255,255,255,1.0);font-size:12.8px;font-family:'Roboto Medium',sans-serif">2017-07-14</text><path  d="M 1338 951
L 1338 956" style="stroke-width:1;stroke:rgba(255,255,255,1.0);fill:none"/><text x="1305" y="973" style="stroke-width:0;stroke:none;fill:rgba(255,255,255,1.0);font-size:12.8px;font-family:'Roboto Medium',sans-serif">2017-07-14</text><path  d="M 1438 951
L 1438 956" style="stroke-width:1;stroke:rgba(255,255,255,1.0);fill:none"/><text x="1405" y="973" style="stroke-width:0;stroke:none;fill:rgba(255,255,255,1.0);font-size:12.8px;font-family:'Roboto Medium',sans-serif">2017-07-14</text><path  d="M 1538 951
L 1538 956" style="stroke-width:1;stroke:rgba(255,255,255,1.0);fill:none"/><text x="1505" y="973" style="stroke-width:0;stroke:none;fill:rgba(255,255,255,1.0);font-size:12.8px;font-family:'Roboto Medium',sans-serif">2017-07-14</text><path  d="M 1638 951
L 1638 956" style="stroke-width:1;stroke:rgba(255,255,255,1.0);fill:none"/><text x="1605" y="973" style="stroke-width:0;stroke:none;fill:rgba(255,255,255,1.0);font-size:12.8px;font-family:'Roboto Medium',sans-serif">2017-07-14</text><path  d="M 1738 951
L 1738 956" style="stroke-width:1;stroke:rgba(255,255,255,1.0);fill:none"/><text x="1705" y="973" style="stroke-width:0;stroke:none;fill:rgba(255,255,255,1.0);font-size:12.8px;font-family:'Roboto Medium',sans-serif">2017-07-14</text><path  d="M 1838 951
L 1838 956" style="stroke-width:1;stroke:rgba(255,255,255,1.0);fill:none"/><text x="1805" y="973" style="stroke-width:0;stroke:none;fill:rgba(255,255,255,1.0);font-size:12.8px;font-family:'Roboto Medium',sans-serif">2017-07-14</text><path  d="M 1937 951
L 1937 956" style="stroke-width:1;stroke:rgba(255,255,255,1.0);fill:none"/><text x="1904" y="973" style="stroke-width:0;stroke:none;fill:rgba(255,255,255,1.0);font-size:12.8px;font-family:'Roboto Medium',sans-serif">2017-07-14</text><text x="973" y="995" style="stroke-width:0;stroke:none;fill:rgba(255,255,255,1.0);font-size:12.8px;font-family:'Roboto Medium',sans-serif">Time</text><path  d="M 1938 951
L 1938 11" style="stroke-width:1;stroke:rgba(255,255,255,1.0);fill:none"/><path  d="M 1938 951
L 1943 951" style="stroke-width:1;stroke:rgba(255,255,255,1.0);fill:none"/><text x="1948" y="957" style="stroke-width:0;stroke:none;fill:rgba(255,255,255,1.0);font-size:12.8px;font-family:'Roboto Medium',sans-serif">6.10</text><path  d="M 1938 914
L 1943 914" style="stroke-width:1;stroke:rgba(255,255,255,1.0);fill:none"/><text x="1948" y="920" style="stroke-width:0;stroke:none;fill:rgba(255,255,255,1.0);font-size:12.8px;font-family:'Roboto Medium',sans-serif">6.15</text><path  d="M 1938 878
L 1943 878" style="stroke-width:1;stroke:rgba(255,255,255,1.0);fill:none"/><text x="1948" y="884" style="stroke-width:0;stroke:none;fill:rgba(255,255,255,1.0);font-size:12.8px;font-family:'Roboto Medium',sans-serif">6.20</text><path  d="M 1938 842
L 1943 842" style="stroke-width:1;stroke:rgba(255,255,255,1.0);fill:none"/><text x="1948" y="848" style="stroke-width:0;stroke:none;fill:rgba(255,255,255,1.0);font-size:12.8px;font-family:'Roboto Medium',sans-serif">6.25</text><path  d="M 1938 806
L 1943 806" style="stroke-width:1;stroke:rgba(255,255,255,1.0);fill:none"/><text x="1948" y="812" style="stroke-width:0;stroke:none;fill:rgba(255,255,255,1.0);font-size:12.8px;font-family:'Roboto Medium',sans-serif">6.30</text><path  d="M 1938 770
L 1943 770" style="stroke-width:1;stroke:rgba(255,255,255,1.0);fill:none"/><text x="1948" y="776" style="stroke-width:0;stroke:none;fill:rgba(255,255,255,1.0);font-size:12.8px;font-family:'Roboto Medium',sans-serif">6.35</text><path  d="M 1938 741
L 1943 741" style="stroke-width:1;stroke:rgba(255,255,255,1.0);fill:none"/><text x="1948" y="747" style="stroke-width:0;stroke:none;fill:rgba(255,255,255,1.0);font-size:12.8px;font-family:'Roboto Medium',sans-serif">6.39</text><path  d="M 1938 705
L 1943 705" style="stroke-width:1;stroke:rgba(255,255,255,1.0);fill:none"/><text x="1948" y="711" style="stroke-width:0;stroke:none;fill:rgba(255,255,255,1.0);font-size:12.8px;font-family:'Roboto Medium',sans-serif">6.44</text><path  d="M 1938 669
L 1943 669" style="stroke-width:1;stroke:rgba(255,255,255,1.0);fill:none"/><text x="1948" y="675" style="stroke-width:0;stroke:none;fill:rgba(255,255,255,1.0);font-size:12.8px;font-family:'Roboto Medium',sans-serif">6.49</text><path  d="M 1938 632
L 1943 632" style="stroke-width:1;stroke:rgba(255,255,255,1.0);fill:none"/><text x="1948" y="638" style="stroke-width:0;stroke:none;fill:rgba(255,255,255,1.0);font-size:12.8px;font-family:'Roboto Medium',sans-serif">6.54</text><path  d="M 1938 596
L 1943 596" style="stroke-width:1;stroke:rgba(255,255,255,1.0);fill:none"/><text x="1948" y="602" style="stroke-width:0;stroke:none;fill:rgba(255,255,255,1.0);font-size:12.8px;font-family:'Roboto Medium',sans-serif">6.59</text><path  d="M 1938 567
L 1943 567" style="stroke-width:1;stroke:rgba(255,255,255,1.0);fill:none"/><text x="1948" y="573" style="stroke-width:0;stroke:none;fill:rgba(255,255,255,1.0);font-size:12.8px;font-family:'Roboto Medium',sans-serif">6.63</text><path  d="M 1938 531
L 1943 531" style="stroke-width:1;stroke:rgba(255,255,255,1.0);fill:none"/><text x="1948" y="537" style="stroke-width:0;stroke:none;fill:rgba(255,255,255,1.0);font-size:12.8px;font-family:'Roboto Medium',sans-serif">6.68</text><path  d="M 1938 495
L 1943 495" style="stroke-width:1;stroke:rgba(255,255,255,1.0);fill:none"/><text x="1948" y="501" style="stroke-width:0;stroke:none;fill:rgba(255,255,255,1.0);font-size:12.8px;font-family:'Roboto Medium',sans-serif">6.73</text><path  d="M 1938 459
L 1943 459" style="stroke-width:1;stroke:rgba(255,255,255,1.0);fill:none"/><text x="1948" y="465" style="stroke-width:0;stroke:none;fill:rgba(255,255,255,1.0);font-size:12.8px;font-family:'Roboto Medium',sans-serif">6.78</text><path  d="M 1938 423
L 1943 423" style="stroke-width:1;stroke:rgba(255,255,255,1.0);fill:none"/><text x="1948" y="429" style="stroke-width:0;stroke:none;fill:rgba(255,255,255,1.0);font-size:12.8px;font-family:'Roboto Medium',sans-serif">6.83</text><path  d="M 1938 386
L 1943 386" style="stroke-width:1;stroke:rgba(255,255,255,1.0);fill:none"/><text x="1948" y="392" style="stroke-width:0;stroke:none;fill:rgba(255,255,255,1.0);font-size:12.8px;font-family:'Roboto Medium',sans-serif">6.88</text><path  d="M 1938 358
L 1943 358" style="stroke-width:1;stroke:rgba(255,255,255,1.0);fill:none"/><text x="1948" y="364" style="stroke-width:0;stroke:none;fill:rgba(255,255,255,1.0);font-size:12.8px;font-family:'Roboto Medium',sans-serif">6.92</text><path  d="M 1938 321
L 1943 321" style="stroke-width:1;stroke:rgba(255,255,255,1.0);fill:none"/><text x="1948" y="327" style="stroke-width:0;stroke:none;fill:rgba(255,255,255,1.0);font-size:12.8px;font-family:'Roboto Medium',sans-serif">6.97</text><path  d="M 1938 285
L 1943 285" style="stroke-width:1;stroke:rgba(255,255,255,1.0);fill:none"/><text x="1948" y="291" style="stroke-width:0;stroke:none;fill:rgba(255,255,255,1.0);font-size:12.8px;font-family:'Roboto Medium',sans-serif">7.02</text><path  d="M 1938 249
L 1943 249" style="stroke-width:1;stroke:rgba(255,255,255,1.0);fill:none"/><text x="1948" y="255" style="stroke-width:0;stroke:none;fill:rgba(255,255,255,1.0);font-size:12.8px;font-family:'Roboto Medium',sans-serif">7.07</text><path  d="M 1938 213
L 1943 213" style="stroke-width:1;stroke:rgba(255,255,255,1.0);fill:none"/><text x="1948" y="219" style="stroke-width:0;stroke:none;fill:rgba(255,255,255,1.0);font-size:12.8px;font-family:'Roboto Medium',sans-serif">7.12</text><path  d="M 1938 184
L 1943 184" style="stroke-width:1;stroke:rgba(255,255,255,1.0);fill:none"/><text x="1948" y="190" style="stroke-width:0;stroke:none;fill:rgba(255,255,255,1.0);font-size:12.8px;font-family:'Roboto Medium',sans-serif">7.16</text><path  d="M 1938 148
L 1943 148" style="stroke-width:1;stroke:rgba(255,255,255,1.0);fill:none"/><text x="1948" y="154" style="stroke-width:0;stroke:none;fill:rgba(255,255,255,1.0);font-size:12.8px;font-family:'Roboto Medium',sans-serif">7.21</text><path  d="M 1938 112
L 1943 112" style="stroke-width:1;stroke:rgba(255,255,255,1.0);fill:none"/><text x="1948" y="118" style="stroke-width:0;stroke:none;fill:rgba(255,255,255,1.0);font-size:12.8px;font-family:'Roboto Medium',sans-serif">7.26</text><path  d="M 1938 76
L 1943 76" style="stroke-width:1;stroke:rgba(255,255,255,1.0);fill:none"/><text x="1948" y="82" style="stroke-width:0;stroke:none;fill:rgba(255,255,255,1.0);font-size:12.8px;font-family:'Roboto Medium',sans-serif">7.31</text><path  d="M 1938 39
L 1943 39" style="stroke-width:1;stroke:rgba(255,255,255,1.0);fill:none"/><text x="1948" y="45" style="stroke-width:0;stroke:none;fill:rgba(255,255,255,1.0);font-size:12.8px;font-family:'Roboto Medium',sans-serif">7.36</text><path  d="M 1938 11
L 1943 11" style="stroke-width:1;stroke:rgba(255,255,255,1.0);fill:none"/><text x="1948" y="17" style="stroke-width:0;stroke:none;fill:rgba(255,255,255,1.0);font-size:12.8px;font-family:'Roboto Medium',sans-serif">7.40</text><text x="1984" y="466" style="stroke-width:0;stroke:none;fill:rgba(255,255,255,1.0);font-size:12.8px;font-family:'Roboto Medium',sans-serif" transform="rotate(90.00,1984,466)">Ratio</text><path  d="M 38 42
L 142 40
L 178 35
L 281 566
L 385 874
L 488 846
L 592 842
L 695 837
L 799 825
L 902 819
L 1006 819
L 1109 815
L 1213 783
L 1316 932
L 1420 907
L 1523 904
L 1627 882
L 1730 868
L 1834 854
L 1937 851
L 1937 951
L 38 951
L 38 42" style="stroke-width:0;stroke:none;fill:rgba(0,170,0,0.3)"/><path  d="M 38 42
L 142 40
L 178 35
L 281 566
L 385 874
L 488 846
L 592 842
L 695 837
L 799 825
L 902 819
L 1006 819
L 1109 815
L 1213 783
L 1316 932
L 1420 907
L 1523 904
L 1627 882
L 1730 868
L 1834 854
L 1937 851" style="stroke-width:1;stroke:rgba(0,170,0,1.0);fill:none"/></svg>