<svg xmlns="http://www.w3.org/2000/svg" xmlns:xlink="http://www.w3.org/1999/xlink" width="2000" height="1000">\n<path  d="M 0 0
L 2000 0
L 2000 1000
L 0 1000
L 0 0" style="stroke-width:0;stroke:rgba(0,0,255,0.0);fill:rgba(0,0,255,0.0)"/><path  d="M 38 11
L 1937 11
L 1937 951
L 38 951
L 38 11" style="stroke-width:0;stroke:rgba(0,0,255,0.0);fill:rgba(0,0,255,0.0)"/><path  d="M 38 951
L 1937 951" style="stroke-width:1;stroke:rgba(255,255,255,1.0);fill:none"/><path  d="M 38 951
L 38 956" style="stroke-width:1;stroke:rgba(255,255,255,1.0);fill:none"/><text x="5" y="973" style="stroke-width:0;stroke:none;fill:rgba(255,255,255,1.0);font-size:12.8px;font-family:'Roboto Medium',sans-serif">2017-07-13</text><path  d="M 138 951
L 138 956" style="stroke-width:1;stroke:rgba(255,255,255,1.0);fill:none"/><text x="105" y="973" style="stroke-width:0;stroke:none;fill:rgba(255,255,255,1.0);font-size:12.8px;font-family:'Roboto Medium',sans-serif">2017-07-13</text><path  d="M 238 951
L 238 956" style="stroke-width:1;stroke:rgba(255,255,255,1.0);fill:none"/><text x="205" y="973" style="stroke-width:0;stroke:none;fill:rgba(255,255,255,1.0);font-size:12.8px;font-family:'Roboto Medium',sans-serif">2017-07-13</text><path  d="M 338 951
L 338 956" style="stroke-width:1;stroke:rgba(255,255,255,1.0);fill:none"/><text x="305" y="973" style="stroke-width:0;stroke:none;fill:rgba(255,255,255,1.0);font-size:12.8px;font-family:'Roboto Medium',sans-serif">2017-07-13</text><path  d="M 438 951
L 438 956" style="stroke-width:1;stroke:rgba(255,255,255,1.0);fill:none"/><text x="405" y="973" style="stroke-width:0;stroke:none;fill:rgba(255,255,255,1.0);font-size:12.8px;font-family:'Roboto Medium',sans-serif">2017-07-13</text><path  d="M 538 951
L 538 956" style="stroke-width:1;stroke:rgba(255,255,255,1.0);fill:none"/><text x="505" y="973" style="stroke-width:0;stroke:none;fill:rgba(255,255,255,1.0);font-size:12.8px;font-family:'Roboto Medium',sans-serif">2017-07-13</text><path  d="M 638 951
L 638 956" style="stroke-width:1;stroke:rgba(255,255,255,1.0);fill:none"/><text x="605" y="973" style="stroke-width:0;stroke:none;fill:rgba(255,255,255,1.0);font-size:12.8px;font-family:'Roboto Medium',sans-serif">2017-07-13</text><path  d="M 738 951
L 738 956" style="stroke-width:1;stroke:rgba(255,255,255,1.0);fill:none"/><text x="705" y="973" style="stroke-width:0;stroke:none;fill:rgba(255,255,255,1.0);font-size:12.8px;font-family:'Roboto Medium',sans-serif">2017-07-13</text><path  d="M 838 951
L 838 956" style="stroke-width:1;stroke:rgba(255,255,255,1.0);fill:none"/><text x="805" y="973" style="stroke-width:0;stroke:none;fill:rgba(255,255,255,1.0);font-size:12.8px;font-family:'Roboto Medium',sans-serif">2017-07-13</text><path  d="M 938 951
L 938 956" style="stroke-width:1;stroke:rgba(255,255,255,1.0);fill:none"/><text x="905" y="973" style="stroke-width:0;stroke:none;fill:rgba(255,255,255,1.0);font-size:12.8px;font-family:'Roboto Medium',sans-serif">2017-07-13</text><path  d="M 1038 951
L 1038 956" style="stroke-width:1;stroke:rgba(255,255,255,1.0);fill:none"/><text x="1005" y="973" style="stroke-width:0;stroke:none;fill:rgba(255,255,255,1.0);font-size:12.8px;font-family:'Roboto Medium',sans-serif">2017-07-13</text><path  d="M 1138 951
L 1138 956" style="stroke-width:1;stroke:rgba(255,255,255,1.0);fill:none"/><text x="1105" y="973" style="stroke-width:0;stroke:none;fill:rgba(255,255,255,1.0);font-size:12.8px;font-family:'Roboto Medium',sans-serif">2017-07-14</text><path  d="M 1238 951
L 1238 956" style="stroke-width:1;stroke:rgba(255,255,255,1.0);fill:none"/><text x="1205" y="973" style="stroke-width:0;stroke:none;fill:rgba(255,255,255,1.0);font-size:12.8px;font-family:'Roboto Medium',sans-serif">2017-07-14</text><path  d="M 1338 951
L 1338 956" style="stroke-width:1;stroke:rgba(255,255,255,1.0);fill:none"/><text x="1305" y="973" style="stroke-width:0;stroke:none;fill:rgba(255,255,255,1.0);font-size:12.8px;font-family:'Roboto Medium',sans-serif">2017-07-14</text><path  d="M 1438 951
L 1438 956" style="stroke-width:1;stroke:rgba(255,255,255,1.0);fill:none"/><text x="1405" y="973" style="stroke-width:0;stroke:none;fill:rgba(255,255,255,1.0);font-size:12.8px;font-family:'Roboto Medium',sans-serif">2017-07-14</text><path  d="M 1538 951
L 1538 956" style="stroke-width:1;stroke:rgba(255,255,255,1.0);fill:none"/><text x="1505" y="973" style="stroke-width:0;stroke:none;fill:rgba(255,255,255,1.0);font-size:12.8px;font-family:'Roboto Medium',sans-serif">2017-07-14</text><path  d="M 1638 951
L 1638 956" style="stroke-width:1;stroke:rgba(255,255,255,1.0);fill:none"/><text x="1605" y="973" style="stroke-width:0;stroke:none;fill:rgba(255,255,255,1.0);font-size:12.8px;font-family:'Roboto Medium',sans-serif">2017-07-14</text><path  d="M 1738 951
L 1738 956" style="stroke-width:1;stroke:rgba(255,255,255,1.0);fill:none"/><text x="1705" y="973" style="stroke-width:0;stroke:none;fill:rgba(255,255,255,1.0);font-size:12.8px;font-family:'Roboto Medium',sans-serif">2017-07-14</text><path  d="M 1838 951
L 1838 956" style="stroke-width:1;stroke:rgba(255,255,255,1.0);fill:none"/><text x="1805" y="973" style="stroke-width:0;stroke:none;fill:rgba(255,255,255,1.0);font-size:12.8px;font-family:'Roboto Medium',sans-serif">2017-07-14</text><path  d="M 1937 951
L 1937 956" style="stroke-width:1;stroke:rgba(255,255,255,1.0);fill:none"/><text x="1904" y="973" style="stroke-width:0;stroke:none;fill:rgba(255,255,255,1.0);font-size:12.8px;font-family:'Roboto Medium',sans-serif">2017-07-14</text><text x="973" y="995" style="stroke-width:0;stroke:none;fill:rgba(255,255,255,1.0);font-size:12.8px;font-family:'Roboto Medium',sans-serif">Time</text><path  d="M 1938 951
L 1938 11" style="stroke-width:1;stroke:rgba(255,255,255,1.0);fill:none"/><path  d="M 1938 951
L 1943 951" style="stroke-width:1;stroke:rgba(255,255,255,1.0);fill:none"/><text x="1948" y="957" style="stroke-width:0;stroke:none;fill:rgba(255,255,255,1.0);font-size:12.8px;font-family:'Roboto Medium',sans-serif">6.10</text><path  d="M 1938 913
L 1943 913" style="stroke-width:1;stroke:rgba(255,255,255,1.0);fill:none"/><text x="1948" y="919" style="stroke-width:0;stroke:none;fill:rgba(255,255,255,1.0);font-size:12.8px;font-family:'Roboto Medium',sans-serif">6.16</text><path  d="M 1938 875
L 1943 875" style="stroke-width:1;stroke:rgba(255,255,255,1.0);fill:none"/><text x="1948" y="881" style="stroke-width:0;stroke:none;fill:rgba(255,255,255,1.0);font-size:12.8px;font-family:'Roboto Medium',sans-serif">6.22</text><path  d="M 1938 844
L 1943 844" style="stroke-width:1;stroke:rgba(255,255,255,1.0);fill:none"/><text x="1948" y="850" style="stroke-width:0;stroke:none;fill:rgba(255,255,255,1.0);font-size:12.8px;font-family:'Roboto Medium',sans-serif">6.27</text><path  d="M 1938 806
L 1943 806" style="stroke-width:1;stroke:rgba(255,255,255,1.0);fill:none"/><text x="1948" y="812" style="stroke-width:0;stroke:none;fill:rgba(255,255,255,1.0);font-size:12.8px;font-family:'Roboto Medium',sans-serif">6.33</text><path  d="M 1938 775
L 1943 775" style="stroke-width:1;stroke:rgba(255,255,255,1.0);fill:none"/><text x="1948" y="781" style="stroke-width:0;stroke:none;fill:rgba(255,255,255,1.0);font-size:12.8px;font-family:'Roboto Medium',sans-serif">6.38</text><path  d="M 1938 737
L 1943 737" style="stroke-width:1;stroke:rgba(255,255,255,1.0);fill:none"/><text x="1948" y="743" style="stroke-width:0;stroke:none;fill:rgba(255,255,255,1.0);font-size:12.8px;font-family:'Roboto Medium',sans-serif">6.44</text><path  d="M 1938 706
L 1943 706" style="stroke-width:1;stroke:rgba(255,255,255,1.0);fill:none"/><text x="1948" y="712" style="stroke-width:0;stroke:none;fill:rgba(255,255,255,1.0);font-size:12.8px;font-family:'Roboto Medium',sans-serif">6.49</text><path  d="M 1938 668
L 1943 668" style="stroke-width:1;stroke:rgba(255,255,255,1.0);fill:none"/><text x="1948" y="674" style="stroke-width:0;stroke:none;fill:rgba(255,255,255,1.0);font-size:12.8px;font-family:'Roboto Medium',sans-serif">6.55</text><path  d="M 1938 637
L 1943 637" style="stroke-width:1;stroke:rgba(255,255,255,1.0);fill:none"/><text x="1948" y="643" style="stroke-width:0;stroke:none;fill:rgba(255,255,255,1.0);font-size:12.8px;font-family:'Roboto Medium',sans-serif">6.60</text><path  d="M 1938 600
L 1943 600" style="stroke-width:1;stroke:rgba(255,255,255,1.0);fill:none"/><text x="1948" y="606" style="stroke-width:0;stroke:none;fill:rgba(255,255,255,1.0);font-size:12.8px;font-family:'Roboto Medium',sans-serif">6.66</text><path  d="M 1938 562
L 1943 562" style="stroke-width:1;stroke:rgba(255,255,255,1.0);fill:none"/><text x="1948" y="568" style="stroke-width:0;stroke:none;fill:rgba(255,255,255,1.0);font-size:12.8px;font-family:'Roboto Medium',sans-serif">6.72</text><path  d="M 1938 531
L 1943 531" style="stroke-width:1;stroke:rgba(255,255,255,1.0);fill:none"/><text x="1948" y="537" style="stroke-width:0;stroke:none;fill:rgba(255,255,255,1.0);font-size:12.8px;font-family:'Roboto Medium',sans-serif">6.77</text><path  d="M 1938 493
L 1943 493" style="stroke-width:1;stroke:rgba(255,255,255,1.0);fill:none"/><text x="1948" y="499" style="stroke-width:0;stroke:none;fill:rgba(255,255,255,1.0);font-size:12.8px;font-family:'Roboto Medium',sans-serif">6.83</text><path  d="M 1938 462
L 1943 462" style="stroke-width:1;stroke:rgba(255,255,255,1.0);fill:none"/><text x="1948" y="468" style="stroke-width:0;stroke:none;fill:rgba(255,255,255,1.0);font-size:12.8px;font-family:'Roboto Medium',sans-serif">6.88</text><path  d="M 1938 424
L 1943 424" style="stroke-width:1;stroke:rgba(255,255,255,1.0);fill:none"/><text x="1948" y="430" style="stroke-width:0;stroke:none;fill:rgba(255,255,255,1.0);font-size:12.8px;font-family:'Roboto Medium',sans-serif">6.94</text><path  d="M 1938 393
L 1943 393" style="stroke-width:1;stroke:rgba(255,255,255,1.0);fill:none"/><text x="1948" y="399" style="stroke-width:0;stroke:none;fill:rgba(255,255,255,1.0);font-size:12.8px;font-family:'Roboto Medium',sans-serif">6.99</text><path  d="M 1938 355
L 1943 355" style="stroke-width:1;stroke:rgba(255,255,255,1.0);fill:none"/><text x="1948" y="361" style="stroke-width:0;stroke:none;fill:rgba(255,255,255,1.0);font-size:12.8px;font-family:'Roboto Medium',sans-serif">7.05</text><path  d="M 1938 324
L 1943 324" style="stroke-width:1;stroke:rgba(255,255,255,1.0);fill:none"/><text x="1948" y="330" style="stroke-width:0;stroke:none;fill:rgba(255,255,255,1.0);font-size:12.8px;font-family:'Roboto Medium',sans-serif">7.10</text><path  d="M 1938 286
L 1943 286" style="stroke-width:1;stroke:rgba(255,255,255,1.0);fill:none"/><text x="1948" y="292" style="stroke-width:0;stroke:none;fill:rgba(255,255,255,1.0);font-size:12.8px;font-family:'Roboto Medium',sans-serif">7.16</text><path  d="M 1938 249
L 1943 249" style="stroke-width:1;stroke:rgba(255,255,255,1.0);fill:none"/><text x="1948" y="255" style="stroke-width:0;stroke:none;fill:rgba(255,255,255,1.0);font-size:12.8px;font-family:'Roboto Medium',sans-serif">7.22</text><path  d="M 1938 217
L 1943 217" style="stroke-width:1;stroke:rgba(255,255,255,1.0);fill:none"/><text x="1948" y="223" style="stroke-width:0;stroke:none;fill:rgba(255,255,255,1.0);font-size:12.8px;font-family:'Roboto Medium',sans-serif">7.27</text><path  d="M 1938 180
L 1943 180" style="stroke-width:1;stroke:rgba(255,255,255,1.0);fill:none"/><text x="1948" y="186" style="stroke-width:0;stroke:none;fill:rgba(255,255,255,1.0);font-size:12.8px;font-family:'Roboto Medium',sans-serif">7.33</text><path  d="M 1938 148
L 1943 148" style="stroke-width:1;stroke:rgba(255,255,255,1.0);fill:none"/><text x="1948" y="154" style="stroke-width:0;stroke:none;fill:rgba(255,255,255,1.0);font-size:12.8px;font-family:'Roboto Medium',sans-serif">7.38</text><path  d="M 1938 111
L 1943 111" style="stroke-width:1;stroke:rgba(255,255,255,1.0);fill:none"/><text x="1948" y="117" style="stroke-width:0;stroke:none;fill:rgba(255,255,255,1.0);font-size:12.8px;font-family:'Roboto Medium',sans-serif">7.44</text><path  d="M 1938 79
L 1943 79" style="stroke-width:1;stroke:rgba(255,255,255,1.0);fill:none"/><text x="1948" y="85" style="stroke-width:0;stroke:none;fill:rgba(255,255,255,1.0);font-size:12.8px;font-family:'Roboto Medium',sans-serif">7.49</text><path  d="M 1938 42
L 1943 42" style="stroke-width:1;stroke:rgba(255,255,255,1.0);fill:none"/><text x="1948" y="48" style="stroke-width:0;stroke:none;fill:rgba(255,255,255,1.0);font-size:12.8px;font-family:'Roboto Medium',sans-serif">7.55</text><path  d="M 1938 11
L 1943 11" style="stroke-width:1;stroke:rgba(255,255,255,1.0);fill:none"/><text x="1948" y="17" style="stroke-width:0;stroke:none;fill:rgba(255,255,255,1.0);font-size:12.8px;font-family:'Roboto Medium',sans-serif">7.60</text><text x="1984" y="439" style="stroke-width:0;stroke:none;fill:rgba(255,255,255,1.0);font-size:12.8px;font-family:'Roboto Medium',sans-serif" transform="rotate(90.00,1984,439)">Download (Gb)</text><path  d="M 38 942
L 142 942
L 178 942
L 281 518
L 385 206
L 488 201
L 592 201
L 695 201
L 799 201
L 902 201
L 1006 201
L 1109 201
L 1213 201
L 1316 24
L 1420 24
L 1523 24
L 1627 24
L 1730 24
L 1834 24
L 1937 24
L 1937 951
L 38 951
L 38 942" style="stroke-width:0;stroke:none;fill:rgba(0,170,0,0.3)"/><path  d="M 38 942
L 142 942
L 178 942
L 281 518
L 385 206
L 488 201
L 592 201
L 695 201
L 799 201
L 902 201
L 1006 201
L 1109 201
L 1213 201
L 1316 24
L 1420 24
L 1523 24
L 1627 24
L 1730 24
L 1834 24
L 1937 24" style="stroke-width:1;stroke:rgba(0,170,0,1.0);fill:none"/></svg>