1499968613,48293593611,6564514252,7.35676,44270847443,73924808433
1499972213,48311832339,6564514252,7.35954,44290046104,73955206313
1499973460,48355741459,6564514252,7.36623,44336266231,74028388179
1499977064,48358736414,7291704522,6.63202,43612228545,73306189501
1499980664,48558015006,7825409392,6.20517,43288290614,73104615618
1499984264,48922249240,7834048412,6.24482,43663056051,73703033654
1499987864,48961655606,7834048412,6.24985,43704536436,73768710931
1499991464,49021994227,7834048412,6.25755,43768050774,73869275299
1499995064,49148478707,7834048412,6.2737,43901192332,74080082766
1499998664,49208061769,7834048412,6.2813,43963911344,74179387869
1500002264,49209487177,7834048412,6.28148,43965411774,74181763549
1500005864,49253489365,7834048412,6.2871,44011729866,74255100529
1500009464,49600622627,7834048412,6.33141,44377133300,74833655966
1500013064,49849905228,8137491150,6.12595,44336093300,74945684230
1500016664,50130387576,8137491150,6.16042,44631337877,75413154810
1500020264,50164040312,8137491150,6.16455,44666761810,75469242703
1500023864,50405888023,8137491150,6.19427,44921338347,75872322221
1500027464,50571546647,8137491150,6.21463,45095715846,76148419928
1500031064,50724327447,8137491150,6.23341,45256537741,76403054595
1500034664,50757062679,8137491150,6.23743,45290995880,76457613315
