<svg xmlns="http://www.w3.org/2000/svg" xmlns:xlink="http://www.w3.org/1999/xlink" width="2000" height="1000">\n<path  d="M 0 0
L 2000 0
L 2000 1000
L 0 1000
L 0 0" style="stroke-width:0;stroke:rgba(0,0,255,0.0);fill:rgba(0,0,255,0.0)"/><path  d="M 38 11
L 1930 11
L 1930 951
L 38 951
L 38 11" style="stroke-width:0;stroke:rgba(0,0,255,0.0);fill:rgba(0,0,255,0.0)"/><path  d="M 38 951
L 1930 951" style="stroke-width:1;stroke:rgba(255,255,255,1.0);fill:none"/><path  d="M 38 951
L 38 956" style="stroke-width:1;stroke:rgba(255,255,255,1.0);fill:none"/><text x="5" y="973" style="stroke-width:0;stroke:none;fill:rgba(255,255,255,1.0);font-size:12.8px;font-family:'Roboto Medium',sans-serif">2017-07-13</text><path  d="M 138 951
L 138 956" style="stroke-width:1;stroke:rgba(255,255,255,1.0);fill:none"/><text x="105" y="973" style="stroke-width:0;stroke:none;fill:rgba(255,255,255,1.0);font-size:12.8px;font-family:'Roboto Medium',sans-serif">2017-07-13</text><path  d="M 238 951
L 238 956" style="stroke-width:1;stroke:rgba(255,255,255,1.0);fill:none"/><text x="205" y="973" style="stroke-width:0;stroke:none;fill:rgba(255,255,255,1.0);font-size:12.8px;font-family:'Roboto Medium',sans-serif">2017-07-13</text><path  d="M 337 951
L 337 956" style="stroke-width:1;stroke:rgba(255,255,255,1.0);fill:none"/><text x="304" y="973" style="stroke-width:0;stroke:none;fill:rgba(255,255,255,1.0);font-size:12.8px;font-family:'Roboto Medium',sans-serif">2017-07-13</text><path  d="M 437 951
L 437 956" style="stroke-width:1;stroke:rgba(255,255,255,1.0);fill:none"/><text x="404" y="973" style="stroke-width:0;stroke:none;fill:rgba(255,255,255,1.0);font-size:12.8px;font-family:'Roboto Medium',sans-serif">2017-07-13</text><path  d="M 536 951
L 536 956" style="stroke-width:1;stroke:rgba(255,255,255,1.0);fill:none"/><text x="503" y="973" style="stroke-width:0;stroke:none;fill:rgba(255,255,255,1.0);font-size:12.8px;font-family:'Roboto Medium',sans-serif">2017-07-13</text><path  d="M 636 951
L 636 956" style="stroke-width:1;stroke:rgba(255,255,255,1.0);fill:none"/><text x="603" y="973" style="stroke-width:0;stroke:none;fill:rgba(255,255,255,1.0);font-size:12.8px;font-family:'Roboto Medium',sans-serif">2017-07-13</text><path  d="M 736 951
L 736 956" style="stroke-width:1;stroke:rgba(255,255,255,1.0);fill:none"/><text x="703" y="973" style="stroke-width:0;stroke:none;fill:rgba(255,255,255,1.0);font-size:12.8px;font-family:'Roboto Medium',sans-serif">2017-07-13</text><path  d="M 835 951
L 835 956" style="stroke-width:1;stroke:rgba(255,255,255,1.0);fill:none"/><text x="802" y="973" style="stroke-width:0;stroke:none;fill:rgba(255,255,255,1.0);font-size:12.8px;font-family:'Roboto Medium',sans-serif">2017-07-13</text><path  d="M 935 951
L 935 956" style="stroke-width:1;stroke:rgba(255,255,255,1.0);fill:none"/><text x="902" y="973" style="stroke-width:0;stroke:none;fill:rgba(255,255,255,1.0);font-size:12.8px;font-family:'Roboto Medium',sans-serif">2017-07-13</text><path  d="M 1034 951
L 1034 956" style="stroke-width:1;stroke:rgba(255,255,255,1.0);fill:none"/><text x="1001" y="973" style="stroke-width:0;stroke:none;fill:rgba(255,255,255,1.0);font-size:12.8px;font-family:'Roboto Medium',sans-serif">2017-07-13</text><path  d="M 1134 951
L 1134 956" style="stroke-width:1;stroke:rgba(255,255,255,1.0);fill:none"/><text x="1101" y="973" style="stroke-width:0;stroke:none;fill:rgba(255,255,255,1.0);font-size:12.8px;font-family:'Roboto Medium',sans-serif">2017-07-14</text><path  d="M 1233 951
L 1233 956" style="stroke-width:1;stroke:rgba(255,255,255,1.0);fill:none"/><text x="1200" y="973" style="stroke-width:0;stroke:none;fill:rgba(255,255,255,1.0);font-size:12.8px;font-family:'Roboto Medium',sans-serif">2017-07-14</text><path  d="M 1333 951
L 1333 956" style="stroke-width:1;stroke:rgba(255,255,255,1.0);fill:none"/><text x="1300" y="973" style="stroke-width:0;stroke:none;fill:rgba(255,255,255,1.0);font-size:12.8px;font-family:'Roboto Medium',sans-serif">2017-07-14</text><path  d="M 1433 951
L 1433 956" style="stroke-width:1;stroke:rgba(255,255,255,1.0);fill:none"/><text x="1400" y="973" style="stroke-width:0;stroke:none;fill:rgba(255,255,255,1.0);font-size:12.8px;font-family:'Roboto Medium',sans-serif">2017-07-14</text><path  d="M 1532 951
L 1532 956" style="stroke-width:1;stroke:rgba(255,255,255,1.0);fill:none"/><text x="1499" y="973" style="stroke-width:0;stroke:none;fill:rgba(255,255,255,1.0);font-size:12.8px;font-family:'Roboto Medium',sans-serif">2017-07-14</text><path  d="M 1632 951
L 1632 956" style="stroke-width:1;stroke:rgba(255,255,255,1.0);fill:none"/><text x="1599" y="973" style="stroke-width:0;stroke:none;fill:rgba(255,255,255,1.0);font-size:12.8px;font-family:'Roboto Medium',sans-serif">2017-07-14</text><path  d="M 1731 951
L 1731 956" style="stroke-width:1;stroke:rgba(255,255,255,1.0);fill:none"/><text x="1698" y="973" style="stroke-width:0;stroke:none;fill:rgba(255,255,255,1.0);font-size:12.8px;font-family:'Roboto Medium',sans-serif">2017-07-14</text><path  d="M 1831 951
L 1831 956" style="stroke-width:1;stroke:rgba(255,255,255,1.0);fill:none"/><text x="1798" y="973" style="stroke-width:0;stroke:none;fill:rgba(255,255,255,1.0);font-size:12.8px;font-family:'Roboto Medium',sans-serif">2017-07-14</text><path  d="M 1930 951
L 1930 956" style="stroke-width:1;stroke:rgba(255,255,255,1.0);fill:none"/><text x="1897" y="973" style="stroke-width:0;stroke:none;fill:rgba(255,255,255,1.0);font-size:12.8px;font-family:'Roboto Medium',sans-serif">2017-07-14</text><text x="969" y="995" style="stroke-width:0;stroke:none;fill:rgba(255,255,255,1.0);font-size:12.8px;font-family:'Roboto Medium',sans-serif">Time</text><path  d="M 1931 951
L 1931 11" style="stroke-width:1;stroke:rgba(255,255,255,1.0);fill:none"/><path  d="M 1931 951
L 1936 951" style="stroke-width:1;stroke:rgba(255,255,255,1.0);fill:none"/><text x="1941" y="957" style="stroke-width:0;stroke:none;fill:rgba(255,255,255,1.0);font-size:12.8px;font-family:'Roboto Medium',sans-serif">40.30</text><path  d="M 1931 911
L 1936 911" style="stroke-width:1;stroke:rgba(255,255,255,1.0);fill:none"/><text x="1941" y="917" style="stroke-width:0;stroke:none;fill:rgba(255,255,255,1.0);font-size:12.8px;font-family:'Roboto Medium',sans-serif">40.38</text><path  d="M 1931 876
L 1936 876" style="stroke-width:1;stroke:rgba(255,255,255,1.0);fill:none"/><text x="1941" y="882" style="stroke-width:0;stroke:none;fill:rgba(255,255,255,1.0);font-size:12.8px;font-family:'Roboto Medium',sans-serif">40.45</text><path  d="M 1931 842
L 1936 842" style="stroke-width:1;stroke:rgba(255,255,255,1.0);fill:none"/><text x="1941" y="848" style="stroke-width:0;stroke:none;fill:rgba(255,255,255,1.0);font-size:12.8px;font-family:'Roboto Medium',sans-serif">40.52</text><path  d="M 1931 807
L 1936 807" style="stroke-width:1;stroke:rgba(255,255,255,1.0);fill:none"/><text x="1941" y="813" style="stroke-width:0;stroke:none;fill:rgba(255,255,255,1.0);font-size:12.8px;font-family:'Roboto Medium',sans-serif">40.59</text><path  d="M 1931 772
L 1936 772" style="stroke-width:1;stroke:rgba(255,255,255,1.0);fill:none"/><text x="1941" y="778" style="stroke-width:0;stroke:none;fill:rgba(255,255,255,1.0);font-size:12.8px;font-family:'Roboto Medium',sans-serif">40.66</text><path  d="M 1931 738
L 1936 738" style="stroke-width:1;stroke:rgba(255,255,255,1.0);fill:none"/><text x="1941" y="744" style="stroke-width:0;stroke:none;fill:rgba(255,255,255,1.0);font-size:12.8px;font-family:'Roboto Medium',sans-serif">40.73</text><path  d="M 1931 703
L 1936 703" style="stroke-width:1;stroke:rgba(255,255,255,1.0);fill:none"/><text x="1941" y="709" style="stroke-width:0;stroke:none;fill:rgba(255,255,255,1.0);font-size:12.8px;font-family:'Roboto Medium',sans-serif">40.80</text><path  d="M 1931 668
L 1936 668" style="stroke-width:1;stroke:rgba(255,255,255,1.0);fill:none"/><text x="1941" y="674" style="stroke-width:0;stroke:none;fill:rgba(255,255,255,1.0);font-size:12.8px;font-family:'Roboto Medium',sans-serif">40.87</text><path  d="M 1931 634
L 1936 634" style="stroke-width:1;stroke:rgba(255,255,255,1.0);fill:none"/><text x="1941" y="640" style="stroke-width:0;stroke:none;fill:rgba(255,255,255,1.0);font-size:12.8px;font-family:'Roboto Medium',sans-serif">40.94</text><path  d="M 1931 599
L 1936 599" style="stroke-width:1;stroke:rgba(255,255,255,1.0);fill:none"/><text x="1941" y="605" style="stroke-width:0;stroke:none;fill:rgba(255,255,255,1.0);font-size:12.8px;font-family:'Roboto Medium',sans-serif">41.01</text><path  d="M 1931 565
L 1936 565" style="stroke-width:1;stroke:rgba(255,255,255,1.0);fill:none"/><text x="1941" y="571" style="stroke-width:0;stroke:none;fill:rgba(255,255,255,1.0);font-size:12.8px;font-family:'Roboto Medium',sans-serif">41.08</text><path  d="M 1931 530
L 1936 530" style="stroke-width:1;stroke:rgba(255,255,255,1.0);fill:none"/><text x="1941" y="536" style="stroke-width:0;stroke:none;fill:rgba(255,255,255,1.0);font-size:12.8px;font-family:'Roboto Medium',sans-serif">41.15</text><path  d="M 1931 495
L 1936 495" style="stroke-width:1;stroke:rgba(255,255,255,1.0);fill:none"/><text x="1941" y="501" style="stroke-width:0;stroke:none;fill:rgba(255,255,255,1.0);font-size:12.8px;font-family:'Roboto Medium',sans-serif">41.22</text><path  d="M 1931 461
L 1936 461" style="stroke-width:1;stroke:rgba(255,255,255,1.0);fill:none"/><text x="1941" y="467" style="stroke-width:0;stroke:none;fill:rgba(255,255,255,1.0);font-size:12.8px;font-family:'Roboto Medium',sans-serif">41.29</text><path  d="M 1931 426
L 1936 426" style="stroke-width:1;stroke:rgba(255,255,255,1.0);fill:none"/><text x="1941" y="432" style="stroke-width:0;stroke:none;fill:rgba(255,255,255,1.0);font-size:12.8px;font-family:'Roboto Medium',sans-serif">41.36</text><path  d="M 1931 391
L 1936 391" style="stroke-width:1;stroke:rgba(255,255,255,1.0);fill:none"/><text x="1941" y="397" style="stroke-width:0;stroke:none;fill:rgba(255,255,255,1.0);font-size:12.8px;font-family:'Roboto Medium',sans-serif">41.43</text><path  d="M 1931 357
L 1936 357" style="stroke-width:1;stroke:rgba(255,255,255,1.0);fill:none"/><text x="1941" y="363" style="stroke-width:0;stroke:none;fill:rgba(255,255,255,1.0);font-size:12.8px;font-family:'Roboto Medium',sans-serif">41.50</text><path  d="M 1931 322
L 1936 322" style="stroke-width:1;stroke:rgba(255,255,255,1.0);fill:none"/><text x="1941" y="328" style="stroke-width:0;stroke:none;fill:rgba(255,255,255,1.0);font-size:12.8px;font-family:'Roboto Medium',sans-serif">41.57</text><path  d="M 1931 288
L 1936 288" style="stroke-width:1;stroke:rgba(255,255,255,1.0);fill:none"/><text x="1941" y="294" style="stroke-width:0;stroke:none;fill:rgba(255,255,255,1.0);font-size:12.8px;font-family:'Roboto Medium',sans-serif">41.64</text><path  d="M 1931 253
L 1936 253" style="stroke-width:1;stroke:rgba(255,255,255,1.0);fill:none"/><text x="1941" y="259" style="stroke-width:0;stroke:none;fill:rgba(255,255,255,1.0);font-size:12.8px;font-family:'Roboto Medium',sans-serif">41.71</text><path  d="M 1931 218
L 1936 218" style="stroke-width:1;stroke:rgba(255,255,255,1.0);fill:none"/><text x="1941" y="224" style="stroke-width:0;stroke:none;fill:rgba(255,255,255,1.0);font-size:12.8px;font-family:'Roboto Medium',sans-serif">41.78</text><path  d="M 1931 184
L 1936 184" style="stroke-width:1;stroke:rgba(255,255,255,1.0);fill:none"/><text x="1941" y="190" style="stroke-width:0;stroke:none;fill:rgba(255,255,255,1.0);font-size:12.8px;font-family:'Roboto Medium',sans-serif">41.85</text><path  d="M 1931 149
L 1936 149" style="stroke-width:1;stroke:rgba(255,255,255,1.0);fill:none"/><text x="1941" y="155" style="stroke-width:0;stroke:none;fill:rgba(255,255,255,1.0);font-size:12.8px;font-family:'Roboto Medium',sans-serif">41.92</text><path  d="M 1931 114
L 1936 114" style="stroke-width:1;stroke:rgba(255,255,255,1.0);fill:none"/><text x="1941" y="120" style="stroke-width:0;stroke:none;fill:rgba(255,255,255,1.0);font-size:12.8px;font-family:'Roboto Medium',sans-serif">41.99</text><path  d="M 1931 80
L 1936 80" style="stroke-width:1;stroke:rgba(255,255,255,1.0);fill:none"/><text x="1941" y="86" style="stroke-width:0;stroke:none;fill:rgba(255,255,255,1.0);font-size:12.8px;font-family:'Roboto Medium',sans-serif">42.06</text><path  d="M 1931 45
L 1936 45" style="stroke-width:1;stroke:rgba(255,255,255,1.0);fill:none"/><text x="1941" y="51" style="stroke-width:0;stroke:none;fill:rgba(255,255,255,1.0);font-size:12.8px;font-family:'Roboto Medium',sans-serif">42.13</text><path  d="M 1931 11
L 1936 11" style="stroke-width:1;stroke:rgba(255,255,255,1.0);fill:none"/><text x="1941" y="17" style="stroke-width:0;stroke:none;fill:rgba(255,255,255,1.0);font-size:12.8px;font-family:'Roboto Medium',sans-serif">42.20</text><text x="1984" y="449" style="stroke-width:0;stroke:none;fill:rgba(255,255,255,1.0);font-size:12.8px;font-family:'Roboto Medium',sans-serif" transform="rotate(90.00,1984,449)">Buffer (Gb)</text><path  d="M 38 490
L 142 481
L 177 460
L 281 794
L 384 943
L 487 770
L 590 751
L 693 722
L 796 660
L 899 632
L 1002 631
L 1106 610
L 1209 441
L 1312 460
L 1415 324
L 1518 308
L 1621 190
L 1724 110
L 1827 36
L 1930 20
L 1930 951
L 38 951
L 38 490" style="stroke-width:0;stroke:none;fill:rgba(0,170,0,0.3)"/><path  d="M 38 490
L 142 481
L 177 460
L 281 794
L 384 943
L 487 770
L 590 751
L 693 722
L 796 660
L 899 632
L 1002 631
L 1106 610
L 1209 441
L 1312 460
L 1415 324
L 1518 308
L 1621 190
L 1724 110
L 1827 36
L 1930 20" style="stroke-width:1;stroke:rgba(0,170,0,1.0);fill:none"/></svg>